<svg xmlns="http://www.w3.org/2000/svg" xmlns:xlink="http://www.w3.org/1999/xlink" xmlns:a="http://ns.adobe.com/AdobeSVGViewerExtensions/3.0/" version="1.1" x="0px" y="0px" width="240px" height="240px" viewBox="-58.5 -38.8 240 240" overflow="visible" enable-background="new -58.5 -38.8 240 240" xml:space="preserve">
<defs>
</defs>
<g>
	<defs>
		<polygon id="SVGID_1_" points="0,0.5 122.9,0 123,162.4 0.5,161.9"/>
	</defs>
	<clipPath id="SVGID_2_">
		<use xlink:href="#SVGID_1_" overflow="visible"/>
	</clipPath>
	<path clip-path="url(#SVGID_2_)" d="M78.8 73.1H52.2v13.7c0 2.4 1 3.5 3.9 3.5h21.1v21.5H5.3V90.4h10.6c2.9 0 3.9-1.1 3.9-3.5V29.3 c0-2.4-1-3.5-3.9-3.5H5.3V4.3h75c24 0 40.6 14.2 40.6 34.8C120.9 60.7 105.6 73.1 78.8 73.1 M73.8 25.7H52.2v27.1h21.1 c9 0 15-5.3 15-13.5C88.4 31.4 82.4 25.7 73.8 25.7"/>
	<rect x="5.3" y="136.7" clip-path="url(#SVGID_2_)" fill="#CB1523" width="115.4" height="22.5"/>
</g>
</svg>
